%YAML 1.1
%TAG !u! tag:unity3d.com,2011:
--- !u!114 &11400000
MonoBehaviour:
  m_ObjectHideFlags: 0
  m_CorrespondingSourceObject: {fileID: 0}
  m_PrefabInstance: {fileID: 0}
  m_PrefabAsset: {fileID: 0}
  m_GameObject: {fileID: 0}
  m_Enabled: 1
  m_EditorHideFlags: 0
  m_Script: {fileID: 11500000, guid: 2271f83ca7a0a2c4ca5d96a912a6c1ad, type: 3}
  m_Name: Demo Dialog
  m_EditorClassIdentifier: 
  Dialog:
  - CharacterId: Bruno
    Text: Hey!
  - CharacterId: Bruno
    Text: "Voc\xEA n\xE3o \xE9 o Rocky?"
  - CharacterId: Fred
    Text: "N\xE3o, sou o Fred Guar\xE1"
  - CharacterId: Bruno
    Text: Ah, que pena...
  - CharacterId: Bruno
    Text: Eu queria conhecer o Rocky.
