%YAML 1.1
%TAG !u! tag:unity3d.com,2011:
--- !u!114 &11400000
MonoBehaviour:
  m_ObjectHideFlags: 0
  m_CorrespondingSourceObject: {fileID: 0}
  m_PrefabInstance: {fileID: 0}
  m_PrefabAsset: {fileID: 0}
  m_GameObject: {fileID: 0}
  m_Enabled: 1
  m_EditorHideFlags: 0
  m_Script: {fileID: 11500000, guid: bbb281ee3bf0b054c82ac2347e9e782c, type: 3}
  m_Name: Character
  m_EditorClassIdentifier: 
  m_GroupName: Character
  m_Data:
    m_SerializedData: []
  m_GUID: 1bb5a866c00a8e540876d480321d01db
  m_SerializeEntries:
  - m_GUID: 1439089906d3237489dac8986dacc1e3
    m_Address: Fred Guara.prefab
    m_ReadOnly: 0
    m_SerializedLabels: []
    m_MainAsset: {fileID: 3472789937181965806, guid: 1439089906d3237489dac8986dacc1e3,
      type: 3}
    m_TargetAsset: {fileID: 3472789937181965806, guid: 1439089906d3237489dac8986dacc1e3,
      type: 3}
  - m_GUID: 14d8b218a681bd647ba895275cd42c23
    m_Address: Skills/Fred Projectile Impact.prefab
    m_ReadOnly: 0
    m_SerializedLabels: []
    m_MainAsset: {fileID: 1372755187139275942, guid: 14d8b218a681bd647ba895275cd42c23,
      type: 3}
    m_TargetAsset: {fileID: 1372755187139275942, guid: 14d8b218a681bd647ba895275cd42c23,
      type: 3}
  - m_GUID: 33e361c1da43f8d4b9b0264b7245d1a5
    m_Address: Player Hud Canvas.prefab
    m_ReadOnly: 0
    m_SerializedLabels: []
    m_MainAsset: {fileID: 6443713951390198429, guid: 33e361c1da43f8d4b9b0264b7245d1a5,
      type: 3}
    m_TargetAsset: {fileID: 6443713951390198429, guid: 33e361c1da43f8d4b9b0264b7245d1a5,
      type: 3}
  - m_GUID: 4dc6820ecaffb724c9cf58990f29eacf
    m_Address: Skills/Fred Projectile.prefab
    m_ReadOnly: 0
    m_SerializedLabels: []
    m_MainAsset: {fileID: 286120004579464541, guid: 4dc6820ecaffb724c9cf58990f29eacf,
      type: 3}
    m_TargetAsset: {fileID: 286120004579464541, guid: 4dc6820ecaffb724c9cf58990f29eacf,
      type: 3}
  - m_GUID: 6debee512c4367c4d881f167b74cf1bc
    m_Address: Assets/Graphics/Prototype/Characters/Medieval Warrior Girl
    m_ReadOnly: 0
    m_SerializedLabels: []
    m_MainAsset: {fileID: 0}
    m_TargetAsset: {fileID: 0}
  m_ReadOnly: 0
  m_Settings: {fileID: 11400000, guid: 14dd5a053607bf847a42ed44b0811c7d, type: 2}
  m_SchemaSet:
    m_Schemas:
    - {fileID: 11400000, guid: 623bbdf2ff11f72498a983a26f81fe80, type: 2}
    - {fileID: 11400000, guid: f1272bc418d1235489b84c08a9af6b17, type: 2}
